﻿Age Range,Response Rate,Savings Amount
Overall,21.0%,I don't have a savings account
Overall,28.0%,$0
Overall,9.0%,Just the minimum balance requirement
Overall,13.0%,"Less than $1,000"
Overall,10.0%,"$1,000-$4,999"
Overall,5.0%,"$5,000-$9,999"
Overall,14.0%,"$10,000 or more"
18-24,22.4%,I don't have a savings account
18-24,21.8%,$0
18-24,9.7%,Just the minimum balance requirement
18-24,19.1%,"Less than $1,000"
18-24,14.7%,"$1,000-$4,999"
18-24,4.7%,"$5,000-$9,999"
18-24,7.5%,"$10,000 or more"
25-34,18.0%,I don't have a savings account
25-34,26.3%,$0
25-34,10.6%,Just the minimum balance requirement
25-34,15.2%,"Less than $1,000"
25-34,12.5%,"$1,000-$4,999"
25-34,5.4%,"$5,000-$9,999"
25-34,12.1%,"$10,000 or more"
35-44,18.9%,I don't have a savings account
35-44,31.6%,$0
35-44,6.6%,Just the minimum balance requirement
35-44,11.6%,"Less than $1,000"
35-44,9.8%,"$1,000-$4,999"
35-44,5.6%,"$5,000-$9,999"
35-44,16.0%,"$10,000 or more"
45-54,21.6%,I don't have a savings account
45-54,30.8%,$0
45-54,7.7%,Just the minimum balance requirement
45-54,10.9%,"Less than $1,000"
45-54,7.5%,"$1,000-$4,999"
45-54,5.2%,"$5,000-$9,999"
45-54,16.2%,"$10,000 or more"
55-64,22.8%,I don't have a savings account
55-64,28.4%,$0
55-64,8.4%,Just the minimum balance requirement
55-64,10.7%,"Less than $1,000"
55-64,8.0%,"$1,000-$4,999"
55-64,4.8%,"$5,000-$9,999"
55-64,16.8%,"$10,000 or more"
65+,21.6%,I don't have a savings account
65+,27.6%,$0
65+,10.7%,Just the minimum balance requirement
65+,8.2%,"Less than $1,000"
65+,7.2%,"$1,000-$4,999"
65+,4.7%,"$5,000-$9,999"
65+,20.0%,"$10,000 or more"
