Sub-Category,2018,2017,2016
Appliances,15730.5366,10602.683,5023.7914
Art,4443.9262,2827.9252,2970.1164
Binders,15339.4836,20431.2682,15193.3428
Envelopes,2883.518,4133.4966,3920.3812
Fasteners,609.8978,588.1468,343.8752
Labels,3489.2186,2385.2238,2646.0572
Paper,24081.6868,18143.069,13140.34
Storage,14805.6014,12408.5736,7010.9202
Supplies,-1910.6256,-1397.9278,-49.7568
